{
    "name": "RepaymentTransfer",
    "fields": [
        {
            "fieldName": "sourceWallet",
            "fieldType": "String",
            "fieldValidateRules": [
                "required"
            ]
        },
        {
            "fieldName": "targetWallet",
            "fieldType": "String",
            "fieldValidateRules": [
                "required"
            ]
        },
        {
            "fieldName": "amount",
            "fieldType": "Double",
            "fieldValidateRules": [
                "required"
            ]
        },
        {
            "fieldName": "type",
            "fieldType": "TransferType",
            "fieldValues": "PARTIAL,COMPLETE"
        },
        {
            "fieldName": "paymentState",
            "fieldType": "PaymentState",
            "fieldValues": "PENDING,SUCCESS,FAILED"
        },
        {
            "fieldName": "paymentTxId",
            "fieldType": "String"
        },
        {
            "fieldName": "paymentMessage",
            "fieldType": "String"
        }
    ],
    "relationships": [
        {
            "relationshipType": "many-to-one",
            "otherEntityName": "repaymentFile",
            "otherEntityRelationshipName": "transfer",
            "relationshipName": "repaymentFile",
            "otherEntityField": "id"
        }
    ],
    "changelogDate": "20200701170500",
    "entityTableName": "repayment_transfer",
    "dto": "mapstruct",
    "pagination": "pagination",
    "service": "serviceImpl",
    "jpaMetamodelFiltering": false,
    "fluentMethods": true,
    "readOnly": false,
    "clientRootFolder": "repayment",
    "applications": "*",
    "microserviceName": "repayment"
}